<?xml version="1.0" encoding="UTF-8" standalone="no"?>
<!-- Created with Inkscape (http://www.inkscape.org/) -->

<svg
   xmlns:dc="http://purl.org/dc/elements/1.1/"
   xmlns:cc="http://creativecommons.org/ns#"
   xmlns:rdf="http://www.w3.org/1999/02/22-rdf-syntax-ns#"
   xmlns:svg="http://www.w3.org/2000/svg"
   xmlns="http://www.w3.org/2000/svg"
   xmlns:sodipodi="http://sodipodi.sourceforge.net/DTD/sodipodi-0.dtd"
   xmlns:inkscape="http://www.inkscape.org/namespaces/inkscape"
   width="48"
   height="48"
   viewBox="0 0 48 48"
   version="1.1"
   id="svg8"
   inkscape:export-filename="/home/tim/Pictures/fennec_minimal_48_512px.png"
   inkscape:export-xdpi="1024"
   inkscape:export-ydpi="1024"
   inkscape:version="0.92.3 (2405546, 2018-03-11)"
   sodipodi:docname="fennec_minimal_48px.svg">
  <defs
     id="defs2">
    <clipPath
       clipPathUnits="userSpaceOnUse"
       id="clipPath1000">
      <g
         inkscape:label="Clip"
         id="use1002">
        <path
           sodipodi:nodetypes="cccccccc"
           inkscape:connector-curvature="0"
           id="path1015"
           d="M 30,40.5 C 42.5,37 51.030322,7.0303212 46.000001,2.0000003 42.517468,2.0000003 34.684523,8.7886973 31,18 26.336747,16.668375 21.670089,16.664959 17,18 13.31548,8.7886973 5.4825317,2.0000003 2.0000005,2.0000003 -3.0303225,7.0303212 5.5,37 18,40.5 c 1,3 3.5,5 6,5 2.5,0 5,-2 6,-5 z"
           style="fill:#ffffff;fill-opacity:1;stroke:none;stroke-width:0.46056518px;stroke-linecap:butt;stroke-linejoin:miter;stroke-opacity:1" />
        <g
           id="g1023">
          <path
             clip-path="none"
             style="fill:#010000;fill-opacity:1;stroke:none;stroke-width:0.5373255px;stroke-linecap:butt;stroke-linejoin:miter;stroke-opacity:1"
             d="m 26.321688,42.678315 c 0,-1.160847 -4.643375,-1.160847 -4.643375,0 C 21.678313,44.226103 23,44.5 24,44.5 c 1,0 2.321688,-0.273897 2.321688,-1.821685 z"
             id="path1017"
             inkscape:connector-curvature="0"
             sodipodi:nodetypes="cccc" />
          <path
             clip-path="none"
             style="fill:#000000;fill-opacity:1;stroke:none;stroke-width:0.84436941px;stroke-linecap:butt;stroke-linejoin:miter;stroke-opacity:1"
             d="m 20.5,34 c -2,0 -6.5,0 -6.5,-4.5 0,-2 2,-2 2,-2 4.5,0 4.5,5 4.5,6.5 z"
             id="path1019"
             inkscape:connector-curvature="0"
             sodipodi:nodetypes="cccc" />
          <path
             clip-path="none"
             style="fill:#000000;fill-opacity:1;stroke:none;stroke-width:0.84436941px;stroke-linecap:butt;stroke-linejoin:miter;stroke-opacity:1"
             d="m 27.5,34 c 2,0 6.5,0 6.5,-4.5 0,-2 -2,-2 -2,-2 -4.5,0 -4.5,5 -4.5,6.5 z"
             id="path1021"
             inkscape:connector-curvature="0"
             sodipodi:nodetypes="cccc" />
        </g>
      </g>
    </clipPath>
  </defs>
  <sodipodi:namedview
     id="base"
     pagecolor="#ffffff"
     bordercolor="#666666"
     borderopacity="1.0"
     inkscape:pageopacity="0.0"
     inkscape:pageshadow="2"
     inkscape:zoom="16"
     inkscape:cx="26.421523"
     inkscape:cy="21.340097"
     inkscape:document-units="px"
     inkscape:current-layer="layer1"
     showgrid="true"
     units="px"
     inkscape:pagecheckerboard="true"
     borderlayer="true"
     showguides="true"
     inkscape:guide-bbox="true"
     inkscape:snap-bbox="false"
     inkscape:snap-object-midpoints="false"
     inkscape:window-width="1920"
     inkscape:window-height="1037"
     inkscape:window-x="1920"
     inkscape:window-y="43"
     inkscape:window-maximized="1"
     inkscape:bbox-nodes="false"
     inkscape:object-paths="false"
     inkscape:snap-intersection-paths="true"
     inkscape:object-nodes="true"
     inkscape:snap-midpoints="true"
     inkscape:snap-smooth-nodes="true"
     inkscape:lockguides="true">
    <inkscape:grid
       type="xygrid"
       id="grid826"
       empspacing="4"
       color="#ff00ff"
       opacity="0.1254902"
       empcolor="#ff00ff"
       empopacity="0.25098039"
       spacingx="0.5"
       spacingy="0.5" />
    <sodipodi:guide
       position="24,-4"
       orientation="1,0"
       id="guide898"
       inkscape:locked="true" />
  </sodipodi:namedview>
  <metadata
     id="metadata5">
    <rdf:RDF>
      <cc:Work
         rdf:about="">
        <dc:format>image/svg+xml</dc:format>
        <dc:type
           rdf:resource="http://purl.org/dc/dcmitype/StillImage" />
        <dc:title></dc:title>
      </cc:Work>
    </rdf:RDF>
  </metadata>
  <g
     inkscape:label="Layer 1"
     inkscape:groupmode="layer"
     id="layer1">
    <path
       style="fill:#ffffff;fill-opacity:1;stroke:none;stroke-width:0.46056518px;stroke-linecap:butt;stroke-linejoin:miter;stroke-opacity:1"
       clip-path="none"
       d="M 2 2 C -3.030323 7.0303209 5.5 37 18 40.5 C 19 43.5 21.5 45.5 24 45.5 C 26.5 45.5 29 43.5 30 40.5 C 42.5 37 51.030321 7.0303209 46 2 C 42.517467 2 34.684523 8.7886973 31 18 C 26.336747 16.668375 21.670089 16.664959 17 18 C 13.31548 8.7886973 5.4825312 2 2 2 z M 16 27.5 C 20.5 27.5 20.5 32.5 20.5 34 C 18.5 34 14 34 14 29.5 C 14 27.5 16 27.5 16 27.5 z M 32 27.5 C 32 27.5 34 27.5 34 29.5 C 34 34 29.5 34 27.5 34 C 27.5 32.5 27.5 27.5 32 27.5 z M 24 41.808594 C 25.160844 41.808594 26.322266 42.097311 26.322266 42.677734 C 26.322266 44.225522 25 44.5 24 44.5 C 23 44.5 21.677734 44.225522 21.677734 42.677734 C 21.677734 42.097311 22.839156 41.808594 24 41.808594 z "
       id="path830" />
  </g>
</svg>
